%YAML 1.1
%TAG !u! tag:unity3d.com,2011:
--- !u!1045 &1
EditorBuildSettings:
  m_ObjectHideFlags: 0
  serializedVersion: 2
  m_Scenes:
  - enabled: 1
    path: Assets/Scenes/LobbyScene.unity
    guid: 3adb158719a2fde47b23f83f67d010c9
  - enabled: 1
    path: Assets/Scenes/RacingScene.unity
    guid: 6d01c2c53492b6c4ea407cc48094f640
  - enabled: 1
    path: Assets/Scenes/DeathRaceScene.unity
    guid: 8d10ec46bcd209549999dcce8832b295
  m_configObjects: {}
