%YAML 1.1
%TAG !u! tag:unity3d.com,2011:
--- !u!1001 &2928031017254870840
PrefabInstance:
  m_ObjectHideFlags: 0
  serializedVersion: 2
  m_Modification:
    m_TransformParent: {fileID: 0}
    m_Modifications:
    - target: {fileID: 5283576691308834602, guid: 40fd4f24060928742a8f3e196818b9e8, type: 3}
      propertyPath: m_SynchronizeParameters.Array.data[0].SynchronizeType
      value: 2
      objectReference: {fileID: 0}
    - target: {fileID: 5283576691308834602, guid: 40fd4f24060928742a8f3e196818b9e8, type: 3}
      propertyPath: m_SynchronizeParameters.Array.data[1].SynchronizeType
      value: 2
      objectReference: {fileID: 0}
    - target: {fileID: 5283576691308834602, guid: 40fd4f24060928742a8f3e196818b9e8, type: 3}
      propertyPath: m_SynchronizeParameters.Array.data[2].SynchronizeType
      value: 2
      objectReference: {fileID: 0}
    - target: {fileID: 9185487178496442027, guid: 40fd4f24060928742a8f3e196818b9e8, type: 3}
      propertyPath: m_RootOrder
      value: 0
      objectReference: {fileID: 0}
    - target: {fileID: 9185487178496442027, guid: 40fd4f24060928742a8f3e196818b9e8, type: 3}
      propertyPath: m_LocalPosition.x
      value: 0
      objectReference: {fileID: 0}
    - target: {fileID: 9185487178496442027, guid: 40fd4f24060928742a8f3e196818b9e8, type: 3}
      propertyPath: m_LocalPosition.y
      value: 0
      objectReference: {fileID: 0}
    - target: {fileID: 9185487178496442027, guid: 40fd4f24060928742a8f3e196818b9e8, type: 3}
      propertyPath: m_LocalPosition.z
      value: 0
      objectReference: {fileID: 0}
    - target: {fileID: 9185487178496442027, guid: 40fd4f24060928742a8f3e196818b9e8, type: 3}
      propertyPath: m_LocalRotation.w
      value: 1
      objectReference: {fileID: 0}
    - target: {fileID: 9185487178496442027, guid: 40fd4f24060928742a8f3e196818b9e8, type: 3}
      propertyPath: m_LocalRotation.x
      value: 0
      objectReference: {fileID: 0}
    - target: {fileID: 9185487178496442027, guid: 40fd4f24060928742a8f3e196818b9e8, type: 3}
      propertyPath: m_LocalRotation.y
      value: 0
      objectReference: {fileID: 0}
    - target: {fileID: 9185487178496442027, guid: 40fd4f24060928742a8f3e196818b9e8, type: 3}
      propertyPath: m_LocalRotation.z
      value: 0
      objectReference: {fileID: 0}
    - target: {fileID: 9185487178496442027, guid: 40fd4f24060928742a8f3e196818b9e8, type: 3}
      propertyPath: m_LocalEulerAnglesHint.x
      value: 0
      objectReference: {fileID: 0}
    - target: {fileID: 9185487178496442027, guid: 40fd4f24060928742a8f3e196818b9e8, type: 3}
      propertyPath: m_LocalEulerAnglesHint.y
      value: 0
      objectReference: {fileID: 0}
    - target: {fileID: 9185487178496442027, guid: 40fd4f24060928742a8f3e196818b9e8, type: 3}
      propertyPath: m_LocalEulerAnglesHint.z
      value: 0
      objectReference: {fileID: 0}
    - target: {fileID: 9185487178496442028, guid: 40fd4f24060928742a8f3e196818b9e8, type: 3}
      propertyPath: m_Controller
      value: 
      objectReference: {fileID: 9100000, guid: 800ba3ee4c5176948978f6f9409636ae, type: 2}
    - target: {fileID: 9185487178496442029, guid: 40fd4f24060928742a8f3e196818b9e8, type: 3}
      propertyPath: m_Sprite
      value: 
      objectReference: {fileID: -1755477887766199819, guid: c07b71a917c189c4184d58cf4026ea82, type: 3}
    - target: {fileID: 9185487178496442030, guid: 40fd4f24060928742a8f3e196818b9e8, type: 3}
      propertyPath: m_Name
      value: P3
      objectReference: {fileID: 0}
    m_RemovedComponents: []
  m_SourcePrefab: {fileID: 100100000, guid: 40fd4f24060928742a8f3e196818b9e8, type: 3}
